第12讲 投资组合优化
…
.code100[

```r
# ... (导入与预处理代码从略)
# 注意：变量名及第二行和第三行的处理
#      缺失值填补
#      日期型变量
indexes
```

```
#> # A tibble: 3,168 × 9
#>   date         SPX  FTSE  FCHI GDAXI   N225    HSI `000300` SENSEX
#>   <date>     <dbl> <dbl> <dbl> <dbl>  <dbl>  <dbl>    <dbl>  <dbl>
#> 1 2009-12-31 1115. 5413. 3936. 6048. 10655. 21872.    3576. 17465.
#> 2 2010-01-04 1133. 5500. 4014. 6048. 10655. 21823.    3535. 17559.
#> 3 2010-01-05 1137. 5522. 4013. 6032. 10682. 22280.    3564. 17686.
#> 4 2010-01-06 1137. 5530. 4018. 6034. 10731. 22417.    3542. 17701.
#> 5 2010-01-07 1142. 5527. 4025. 6019. 10682. 22269.    3471. 17616.
#> # … with 3,163 more rows
```
…
# 基于日指数收盘点位，计算月度收益率数据
indexes_l %>% 
  tq_transmute(
    select = close,
    mutate_fun = monthlyReturn
  ) %>% 
  rename(return = monthly.returns) -> idx_rets_l
idx_rets_l
```

```
#> # A tibble: 1,248 × 3
#> # Groups:   symbol [8]
#>   symbol date        return
#>   <chr>  <date>       <dbl>
#> 1 000300 2009-12-31  0     
#> 2 000300 2010-01-29 -0.104 
#> 3 000300 2010-02-26  0.0242
#> # … with 1,245 more rows
```
…
