第11讲 制表
…
---

```r
library(tidyverse)
library(gt)
```

--

```r
gtcars
```

```
#> # A tibble: 47 × 15
#>   mfr     model    year trim  bdy_s…¹    hp hp_rpm   trq trq_rpm mpg_c mpg_h drive…² trsmn
#>   <chr>   <chr>   <dbl> <chr> <chr>   <dbl>  <dbl> <dbl>   <dbl> <dbl> <dbl> <chr>   <chr>
#> 1 Ford    GT       2017 Base… coupe     647   6250   550    5900    11    18 rwd     7a   
#> 2 Ferrari 458 Sp…  2015 Base… coupe     597   9000   398    6000    13    17 rwd     7a   
#> 3 Ferrari 458 Sp…  2015 Base  conver…   562   9000   398    6000    13    17 rwd     7a   
#> 4 Ferrari 458 It…  2014 Base… coupe     562   9000   398    6000    13    17 rwd     7a   
#> 5 Ferrari 488 GTB  2016 Base… coupe     661   8000   561    3000    15    22 rwd     7a   
#> 6 Ferrari Califo…  2015 Base… conver…   553   7500   557    4750    16    23 rwd     7a   
#> # … with 41 more rows, 2 more variables: ctry_origin <chr>, msrp <dbl>, and abbreviated
#> #   variable names ¹​bdy_style, ²​drivetrain
```
…
```r
library(modelsummary)
library(palmerpenguins)
set.seed(123)
penguins %>% 
  rename( # 原变量名太长，太占宝贵的幻灯片空间，重命名下
    b_len = bill_length_mm, b_dep = bill_depth_mm,
    f_len = flipper_length_mm, b_mss = body_mass_g
  ) %>% 
  arrange(runif(n = n())) %>% print() -> pgs  # 短的数据集名
```

```
#> # A tibble: 344 × 8
#>    species   island    b_len b_dep f_len b_mss sex     year
#>    <fct>     <fct>     <dbl> <dbl> <int> <int> <fct>  <int>
#>  1 Adelie    Torgersen  45.8  18.9   197  4150 male    2008
#>  2 Gentoo    Biscoe     NA    NA      NA    NA <NA>    2009
#>  3 Chinstrap Dream      54.2  20.8   201  4300 male    2008
#>  4 Chinstrap Dream      52    19     197  4150 male    2007
#>  5 Adelie    Dream      32.1  15.5   188  3050 female  2009
#>  6 Gentoo    Biscoe     44.5  15.7   217  4875 <NA>    2009
#>  7 Adelie    Dream      36.4  17     195  3325 female  2007
#>  8 Chinstrap Dream      49.8  17.3   198  3675 female  2009
#>  9 Chinstrap Dream      51.4  19     201  3950 male    2009
#> 10 Adelie    Torgersen  42.5  20.7   197  4500 male    2007
#> # … with 334 more rows
```
…
---
layout: true

### .bold[2.2 .red[`modelsummary()`] & `modelplot()`]

---

[{{下载 guerry.csv}}](data/Guerry.csv)

```r
(guerry <- read_csv('data/Guerry.csv'))
```

```
#> # A tibble: 86 × 24
#>    ...1  dept Region Department Crime_pers Crime…¹ Liter…² Donat…³ Infants Suici…⁴ MainC…⁵
#>   <dbl> <dbl> <chr>  <chr>           <dbl>   <dbl>   <dbl>   <dbl>   <dbl>   <dbl> <chr>  
#> 1     1     1 E      Ain             28870   15890      37    5098   33120   35039 2:Med  
#> 2     2     2 N      Aisne           26226    5521      51    8901   14572   12831 2:Med  
#> 3     3     3 C      Allier          26747    7925      13   10973   17044  114121 2:Med  
#> # … with 83 more rows, 13 more variables: Wealth <dbl>, Commerce <dbl>, Clergy <dbl>,
#> #   Crime_parents <dbl>, Infanticide <dbl>, Donation_clergy <dbl>, Lottery <dbl>,
#> #   Desertion <dbl>, Instruction <dbl>, Prostitutes <dbl>, Distance <dbl>, Area <dbl>,
#> #   Pop1831 <dbl>, and abbreviated variable names ¹​Crime_prop, ²​Literacy, ³​Donations,
#> #   ⁴​Suicides, ⁵​MainCity
```
…
